{
    "limit": 20,
    "offset": 0,
    "count": 20,
    "total": 1163,
    "results": [
        {
            "id": "24c42b45-3a8e-4ef4-81ca-d4162b5250cb",
            "version": 12,
            "createdAt": "2021-03-04T19:38:48.008Z",
            "lastModifiedAt": "2021-03-22T12:35:18.386Z",
            "lastModifiedBy": {
                "clientId": "KWv8cEitMtB_AZYcnMRckN3l",
                "isPlatformClient": false
            },
            "createdBy": {
                "clientId": "KWv8cEitMtB_AZYcnMRckN3l",
                "isPlatformClient": false
            },
            "container": "b2b",
            "key": "sample_company",
            "value": {
                "customerGroup": "B2BREGISTER",
                "addresses": {
                    "address": [
                        {
                            "id": "1",
                            "title": "Mr.",
                            "firstName": "fName",
                            "lastName": "lName",
                            "streetName": "streNAme",
                            "streetNumber": "1",
                            "postalCode": "23432",
                            "city": "Raleigh",
                            "state": "NC",
                            "country": "US",
                            "email": "test@cust.com",
                            "phone": "555-333-6666"
                        },
                        {
                            "id": "2",
                            "title": "Mr.",
                            "firstName": "f2Name",
                            "lastName": "l2Name",
                            "streetName": "stre2NAme",
                            "streetNumber": "2",
                            "postalCode": "23432",
                            "city": "Raleigh",
                            "state": "NC",
                            "country": "US",
                            "email": "test@cust2.com",
                            "phone": "555-444-6666"
                        }
                    ]
                },
                "billingAddressIds": [
                    "1"
                ],
                "companyCategory": "Hospital",
                "companyName": "abc company",
                "customerNumber": "1cb97a23-1d18-4571-a5a7-5c85986f00e0",
                "defaultBillingAddressId": "1",
                "defaultShippingAddressId": "1",
                "shippingAddressIds": [
                    "1",
                    "2"
                ]
            }
        },
        {
            "id": "743e1e0a-1549-418c-9ce8-3e09b26b8a43",
            "version": 3,
            "createdAt": "2021-03-09T14:43:23.255Z",
            "lastModifiedAt": "2021-03-10T21:09:19.205Z",
            "lastModifiedBy": {
                "isPlatformClient": true,
                "user": {
                    "typeId": "user",
                    "id": "3c79ae42-42ec-408a-8f19-7d455a8672f0"
                }
            },
            "createdBy": {
                "isPlatformClient": true,
                "user": {
                    "typeId": "user",
                    "id": "3c79ae42-42ec-408a-8f19-7d455a8672f0"
                }
            },
            "container": "mc-custom-object-schema",
            "key": "shipping",
            "value": {
                "attributes": [
                    {
                        "name": "Freight Thresholds",
                        "type": "Object",
                        "set": false,
                        "required": false,
                        "attributes": [
                            {
                                "name": "Device",
                                "type": "Money",
                                "set": false,
                                "required": false
                            },
                            {
                                "name": "Filter",
                                "type": "Money",
                                "set": false,
                                "required": false
                            }
                        ],
                        "display": false
                    },
                    {
                        "name": "Pallet Definition",
                        "type": "Object",
                        "set": false,
                        "required": false,
                        "attributes": [
                            {
                                "name": "Length (in)",
                                "type": "Number",
                                "set": false,
                                "required": false
                            },
                            {
                                "name": "Width (in)",
                                "type": "Number",
                                "set": false,
                                "required": false
                            },
                            {
                                "name": "Height (in)",
                                "type": "Number",
                                "set": false,
                                "required": false
                            },
                            {
                                "name": "Weight (lb)",
                                "type": "Number",
                                "set": false,
                                "required": false
                            }
                        ],
                        "display": true
                    },
                    {
                        "name": "Handling Costs",
                        "type": "Object",
                        "set": false,
                        "required": false,
                        "attributes": [
                            {
                                "name": "Parcel",
                                "type": "Object",
                                "set": false,
                                "required": false,
                                "attributes": [
                                    {
                                        "name": "Item",
                                        "type": "Money",
                                        "set": false,
                                        "required": false
                                    },
                                    {
                                        "name": "Order",
                                        "type": "Money",
                                        "set": false,
                                        "required": false
                                    },
                                    {
                                        "name": "SN Scan",
                                        "type": "Money",
                                        "set": false,
                                        "required": false
                                    }
                                ]
                            },
                            {
                                "name": "Freight",
                                "type": "Object",
                                "set": false,
                                "required": false,
                                "attributes": [
                                    {
                                        "name": "Pallet",
                                        "type": "Money",
                                        "set": false,
                                        "required": false
                                    },
                                    {
                                        "name": "SKU",
                                        "type": "Money",
                                        "set": false,
                                        "required": false
                                    },
                                    {
                                        "name": "Order",
                                        "type": "Money",
                                        "set": false,
                                        "required": false
                                    },
                                    {
                                        "name": "SN Scan",
                                        "type": "Money",
                                        "set": false,
                                        "required": false
                                    }
                                ]
                            }
                        ]
                    },
                    {
                        "name": "Source Address",
                        "type": "Object",
                        "set": false,
                        "required": false,
                        "attributes": [
                            {
                                "name": "Street",
                                "type": "String",
                                "set": false,
                                "required": false
                            },
                            {
                                "name": "Street 2",
                                "type": "String",
                                "set": false,
                                "required": false
                            },
                            {
                                "name": "City",
                                "type": "String",
                                "set": false,
                                "required": false
                            },
                            {
                                "name": "State",
                                "type": "String",
                                "set": false,
                                "required": false
                            },
                            {
                                "name": "Zip",
                                "type": "String",
                                "set": false,
                                "required": false
                            },
                            {
                                "name": "ALOM Account",
                                "type": "String",
                                "set": false,
                                "required": false
                            }
                        ]
                    },
                    {
                        "name": "Default Markup",
                        "type": "Number",
                        "set": false,
                        "required": false
                    },
                    {
                        "name": "Freight Class",
                        "type": "String",
                        "set": false,
                        "required": false
                    }
                ]
            }
        },
        {
            "id": "c3d29e24-197d-4762-9631-c5b390fed3bf",
            "version": 2,
            "createdAt": "2021-03-09T14:48:58.717Z",
            "lastModifiedAt": "2021-03-10T21:09:31.313Z",
            "lastModifiedBy": {
                "isPlatformClient": true,
                "user": {
                    "typeId": "user",
                    "id": "3c79ae42-42ec-408a-8f19-7d455a8672f0"
                }
            },
            "createdBy": {
                "isPlatformClient": true,
                "user": {
                    "typeId": "user",
                    "id": "3c79ae42-42ec-408a-8f19-7d455a8672f0"
                }
            },
            "container": "shipping",
            "key": "default",
            "value": {
                "freightThresholds": {
                    "device": {
                        "amount": "18.00",
                        "currencyCode": "USD"
                    },
                    "filter": {
                        "amount": "50.00",
                        "currencyCode": "USD"
                    }
                },
                "palletDefinition": {
                    "lengthIn": 48,
                    "widthIn": 40,
                    "heightIn": 61,
                    "weightLb": 606
                },
                "handlingCosts": {
                    "parcel": {
                        "item": {
                            "amount": "1.30",
                            "currencyCode": "USD"
                        },
                        "order": {
                            "amount": "2.25",
                            "currencyCode": "USD"
                        },
                        "snScan": {
                            "amount": "0.20",
                            "currencyCode": "USD"
                        }
                    },
                    "freight": {
                        "pallet": {
                            "amount": "17.00",
                            "currencyCode": "USD"
                        },
                        "sku": {
                            "amount": "12.00",
                            "currencyCode": "USD"
                        },
                        "order": {
                            "amount": "2.25",
                            "currencyCode": "USD"
                        },
                        "snScan": {
                            "amount": "0.20",
                            "currencyCode": "USD"
                        }
                    }
                },
                "sourceAddress": {
                    "street": "48105 Warm Springs Blvd.,",
                    "street2": "",
                    "city": "Fremont",
                    "state": "CA",
                    "zip": "94539-7498",
                    "alomAccount": "630833396"
                },
                "defaultMarkup": 1,
                "freightClass": "100"
            }
        },
        {
            "id": "bd588504-9d02-4849-bd8d-8b38e712de61",
            "version": 6,
            "createdAt": "2021-03-18T12:30:51.261Z",
            "lastModifiedAt": "2021-03-22T13:15:45.818Z",
            "lastModifiedBy": {
                "clientId": "KWv8cEitMtB_AZYcnMRckN3l",
                "isPlatformClient": false
            },
            "createdBy": {
                "clientId": "KWv8cEitMtB_AZYcnMRckN3l",
                "isPlatformClient": false
            },
            "container": "test-container",
            "key": "test-key",
            "value": "test-value"
        },
        {
            "id": "089a24d1-da26-4ba8-b0be-7311b8778200",
            "version": 2,
            "createdAt": "2021-03-20T10:13:42.981Z",
            "lastModifiedAt": "2021-03-20T10:13:57.692Z",
            "lastModifiedBy": {
                "clientId": "KWv8cEitMtB_AZYcnMRckN3l",
                "isPlatformClient": false
            },
            "createdBy": {
                "clientId": "KWv8cEitMtB_AZYcnMRckN3l",
                "isPlatformClient": false
            },
            "container": "b2b",
            "key": "mo-dev",
            "value": "mo-dev1"
        },
        {
            "id": "81f86de0-7ae2-4eca-9ab6-73cd754cd2bc",
            "version": 2,
            "createdAt": "2021-03-20T10:52:48.745Z",
            "lastModifiedAt": "2021-03-20T10:52:54.825Z",
            "lastModifiedBy": {
                "clientId": "KWv8cEitMtB_AZYcnMRckN3l",
                "isPlatformClient": false
            },
            "createdBy": {
                "clientId": "KWv8cEitMtB_AZYcnMRckN3l",
                "isPlatformClient": false
            },
            "container": "b2b1",
            "key": "mo-dev1",
            "value": "mo-dev233"
        },
        {
            "id": "cac069ec-5a77-445f-bd84-d7957e7a37ea",
            "version": 75,
            "createdAt": "2021-03-20T13:06:53.863Z",
            "lastModifiedAt": "2021-03-23T16:07:17.605Z",
            "lastModifiedBy": {
                "clientId": "KWv8cEitMtB_AZYcnMRckN3l",
                "isPlatformClient": false
            },
            "createdBy": {
                "clientId": "KWv8cEitMtB_AZYcnMRckN3l",
                "isPlatformClient": false
            },
            "container": "b2b",
            "key": "Photon",
            "value": {
                "id": "0808ec07-2f6e-46d7-a573-bae453358a64"
            }
        },
        {
            "id": "3b06aaf0-1527-4590-8f13-d85cc7d89258",
            "version": 37,
            "createdAt": "2021-03-22T07:39:37.912Z",
            "lastModifiedAt": "2021-03-23T16:04:58.014Z",
            "lastModifiedBy": {
                "clientId": "KWv8cEitMtB_AZYcnMRckN3l",
                "isPlatformClient": false
            },
            "createdBy": {
                "clientId": "KWv8cEitMtB_AZYcnMRckN3l",
                "isPlatformClient": false
            },
            "container": "Photon",
            "key": "b2b",
            "value": {}
        },
        {
            "id": "d40bbff4-c5f9-41f5-b425-eb01eaa27f52",
            "version": 2,
            "createdAt": "2021-03-22T14:08:11.262Z",
            "lastModifiedAt": "2021-03-22T14:24:24.972Z",
            "lastModifiedBy": {
                "clientId": "KWv8cEitMtB_AZYcnMRckN3l",
                "isPlatformClient": false
            },
            "createdBy": {
                "clientId": "KWv8cEitMtB_AZYcnMRckN3l",
                "isPlatformClient": false
            },
            "container": "b2b",
            "key": "99090bb7-356e-4d74-ba97-ef56dc1c0728",
            "value": {
                "id": "99090bb7-356e-4d74-ba97-ef56dc1c0728",
                "noOfEmployees": "12",
                "noOfOfficeSpaces": "12"
            }
        },
        {
            "id": "0d024863-3af2-4e2d-8e6f-59539d8ecfcd",
            "version": 2,
            "createdAt": "2021-03-22T17:09:04.132Z",
            "lastModifiedAt": "2021-03-22T17:10:24.008Z",
            "lastModifiedBy": {
                "clientId": "KWv8cEitMtB_AZYcnMRckN3l",
                "isPlatformClient": false
            },
            "createdBy": {
                "clientId": "KWv8cEitMtB_AZYcnMRckN3l",
                "isPlatformClient": false
            },
            "container": "b2b",
            "key": "49b94a99-2a62-4592-86e7-8de4f35b6f2b",
            "value": {
                "id": "49b94a99-2a62-4592-86e7-8de4f35b6f2b",
                "parcelFlag": false,
                "freightFlag": false,
                "addresses": [
                    null,
                    null,
                    null,
                    null,
                    null,
                    null,
                    null,
                    null,
                    null,
                    null
                ],
                "defaultBillingAddress": 0,
                "billingAddresses": [
                    0,
                    0,
                    0,
                    0,
                    0,
                    0,
                    0,
                    0,
                    0,
                    0
                ],
                "shippingAddresses": [
                    0,
                    0,
                    0,
                    0,
                    0,
                    0,
                    0,
                    0,
                    0,
                    0
                ],
                "defaultShippingAddress": 0,
                "noOfEmployees": "12",
                "noOfOfficeSpaces": "12"
            }
        },
        {
            "id": "e0cb6657-ae53-4a2b-8bd8-2e70057a6826",
            "version": 3,
            "createdAt": "2021-03-22T17:20:43.731Z",
            "lastModifiedAt": "2021-03-22T17:24:27.478Z",
            "lastModifiedBy": {
                "clientId": "KWv8cEitMtB_AZYcnMRckN3l",
                "isPlatformClient": false
            },
            "createdBy": {
                "clientId": "KWv8cEitMtB_AZYcnMRckN3l",
                "isPlatformClient": false
            },
            "container": "b2b",
            "key": "d173c761-4750-430c-8dfb-9f0261382c9b",
            "value": {
                "id": "d173c761-4750-430c-8dfb-9f0261382c9b",
                "parcelFlag": false,
                "freightFlag": false,
                "defaultBillingAddress": 0,
                "defaultShippingAddress": 0,
                "addresses": [
                    {
                        "firstName": "Ravi",
                        "lastName": "Teja",
                        "streetAddress1": {
                            "street": "tsts",
                            "landMark": "rsf"
                        },
                        "streetAddress2": {
                            "street": "string",
                            "landMark": "string"
                        },
                        "city": "Palasa",
                        "state": "AP",
                        "postalCode": "543422"
                    }
                ],
                "shippingAddresses": [
                    0
                ]
            }
        },
        {
            "id": "c3fb5e96-129a-4d8a-baf4-07c8c002070f",
            "version": 3,
            "createdAt": "2021-03-23T09:07:15.027Z",
            "lastModifiedAt": "2021-03-23T09:15:25.518Z",
            "lastModifiedBy": {
                "clientId": "KWv8cEitMtB_AZYcnMRckN3l",
                "isPlatformClient": false
            },
            "createdBy": {
                "clientId": "KWv8cEitMtB_AZYcnMRckN3l",
                "isPlatformClient": false
            },
            "container": "b2b",
            "key": "a38838ba-bbbd-494a-861d-86b487033fa0",
            "value": {
                "parcelFlag": false,
                "freightFlag": false,
                "defaultBillingAddress": 0,
                "defaultShippingAddress": 0,
                "id": "a38838ba-bbbd-494a-861d-86b487033fa0",
                "addresses": [
                    {
                        "firstName": "Ravi",
                        "lastName": "Teja",
                        "streetAddress1": {
                            "street": "colony",
                            "landMark": "near school"
                        },
                        "city": "Palasa",
                        "state": "AP",
                        "postalCode": "424276"
                    },
                    {
                        "firstName": "Ravi",
                        "lastName": "Teja",
                        "streetAddress1": {
                            "street": "colony",
                            "landMark": "newr mall"
                        },
                        "city": "Srikakulam",
                        "state": "AP",
                        "postalCode": "423242",
                        "phoneNumber": "8884175435",
                        "country": "India"
                    }
                ],
                "billingAddresses": [
                    1
                ],
                "shippingAddresses": [
                    0
                ]
            }
        },
        {
            "id": "5ee9a9fe-bbd0-4b97-9277-7b3fcfaed040",
            "version": 1,
            "createdAt": "2021-03-23T10:21:35.725Z",
            "lastModifiedAt": "2021-03-23T10:21:35.725Z",
            "lastModifiedBy": {
                "clientId": "KWv8cEitMtB_AZYcnMRckN3l",
                "isPlatformClient": false
            },
            "createdBy": {
                "clientId": "KWv8cEitMtB_AZYcnMRckN3l",
                "isPlatformClient": false
            },
            "container": "b2b",
            "key": "66a549fe-c8ba-4bdb-bd96-01f09770d3ed",
            "value": {
                "noOfEmployees": "<50",
                "noOfOfficeSpaces": "5-10",
                "parcelFlag": false,
                "freightFlag": false,
                "defaultBillingAddress": 0,
                "defaultShippingAddress": 0
            }
        },
        {
            "id": "3f65f67c-a45c-4c5d-b4cb-ab6152751d26",
            "version": 2,
            "createdAt": "2021-03-23T10:46:14.673Z",
            "lastModifiedAt": "2021-03-23T10:47:06.171Z",
            "lastModifiedBy": {
                "clientId": "KWv8cEitMtB_AZYcnMRckN3l",
                "isPlatformClient": false
            },
            "createdBy": {
                "clientId": "KWv8cEitMtB_AZYcnMRckN3l",
                "isPlatformClient": false
            },
            "container": "b2b",
            "key": "bd577ea6-82f0-4857-adf6-fc8ab315c881",
            "value": {
                "parcelFlag": false,
                "freightFlag": false,
                "defaultBillingAddress": 0,
                "defaultShippingAddress": 0,
                "noOfEmployees": "12",
                "noOfOfficeSpaces": "12"
            }
        },
        {
            "id": "97c76720-17f9-4643-b6db-9bfeb659dd14",
            "version": 1,
            "createdAt": "2021-03-23T10:55:34.427Z",
            "lastModifiedAt": "2021-03-23T10:55:34.427Z",
            "lastModifiedBy": {
                "clientId": "KWv8cEitMtB_AZYcnMRckN3l",
                "isPlatformClient": false
            },
            "createdBy": {
                "clientId": "KWv8cEitMtB_AZYcnMRckN3l",
                "isPlatformClient": false
            },
            "container": "b2b",
            "key": "877974d0-0221-421a-aeff-0e28258bdd88",
            "value": {
                "companyName": "Photon",
                "companyCategory": "PVT",
                "parcelFlag": false,
                "freightFlag": false,
                "defaultBillingAddress": 0,
                "defaultShippingAddress": 0
            }
        },
        {
            "id": "13447300-c154-4ac4-bb8d-b017cf8aea02",
            "version": 1,
            "createdAt": "2021-03-23T14:27:04.119Z",
            "lastModifiedAt": "2021-03-23T14:27:04.119Z",
            "lastModifiedBy": {
                "clientId": "KWv8cEitMtB_AZYcnMRckN3l",
                "isPlatformClient": false
            },
            "createdBy": {
                "clientId": "KWv8cEitMtB_AZYcnMRckN3l",
                "isPlatformClient": false
            },
            "container": "b2b",
            "key": "Photon775Ravi",
            "value": {
                "parcelFlag": false,
                "freightFlag": false,
                "defaultBillingAddress": 0,
                "defaultShippingAddress": 0
            }
        },
        {
            "id": "5297c37e-e084-4776-bf68-f5c5ac61244d",
            "version": 1,
            "createdAt": "2021-03-23T14:28:12.593Z",
            "lastModifiedAt": "2021-03-23T14:28:12.593Z",
            "lastModifiedBy": {
                "clientId": "KWv8cEitMtB_AZYcnMRckN3l",
                "isPlatformClient": false
            },
            "createdBy": {
                "clientId": "KWv8cEitMtB_AZYcnMRckN3l",
                "isPlatformClient": false
            },
            "container": "b2b",
            "key": "af55ed38-2259-4e26-9313-f6ec3fd9b3ec",
            "value": {
                "noOfEmployees": "12",
                "noOfOfficeSpaces": "12",
                "parcelFlag": false,
                "freightFlag": false,
                "defaultBillingAddress": 0,
                "defaultShippingAddress": 0
            }
        },
        {
            "id": "cce1e4c8-319b-4863-ac64-a9b3916ccbb0",
            "version": 1,
            "createdAt": "2021-03-23T14:32:51.731Z",
            "lastModifiedAt": "2021-03-23T14:32:51.731Z",
            "lastModifiedBy": {
                "clientId": "KWv8cEitMtB_AZYcnMRckN3l",
                "isPlatformClient": false
            },
            "createdBy": {
                "clientId": "KWv8cEitMtB_AZYcnMRckN3l",
                "isPlatformClient": false
            },
            "container": "b2b",
            "key": "Photon955Anil",
            "value": {
                "parcelFlag": false,
                "freightFlag": false,
                "defaultBillingAddress": 0,
                "defaultShippingAddress": 0
            }
        },
        {
            "id": "95428d80-d301-44bb-9bf5-855b84518b01",
            "version": 3,
            "createdAt": "2021-03-23T14:38:50.058Z",
            "lastModifiedAt": "2021-03-23T14:42:12.138Z",
            "lastModifiedBy": {
                "clientId": "KWv8cEitMtB_AZYcnMRckN3l",
                "isPlatformClient": false
            },
            "createdBy": {
                "clientId": "KWv8cEitMtB_AZYcnMRckN3l",
                "isPlatformClient": false
            },
            "container": "b2b",
            "key": "Photon217Murali",
            "value": {
                "parcelFlag": false,
                "freightFlag": false,
                "defaultBillingAddress": 0,
                "defaultShippingAddress": 0,
                "id": "a61028b4-40e1-416b-9b57-559c8c6bf16c",
                "addresses": [
                    {
                        "firstName": "Murali",
                        "lastName": "Murali",
                        "streetAddress1": {
                            "street": "colony",
                            "landMark": "Palasa"
                        },
                        "city": "Palasa",
                        "state": "AP",
                        "postalCode": "536383"
                    }
                ],
                "shippingAddresses": [
                    0
                ]
            }
        },
        {
            "id": "affc0616-5ccb-4f5e-8b2c-ee72953e3477",
            "version": 3,
            "createdAt": "2021-03-23T14:46:01.532Z",
            "lastModifiedAt": "2021-03-23T14:47:54.467Z",
            "lastModifiedBy": {
                "clientId": "KWv8cEitMtB_AZYcnMRckN3l",
                "isPlatformClient": false
            },
            "createdBy": {
                "clientId": "KWv8cEitMtB_AZYcnMRckN3l",
                "isPlatformClient": false
            },
            "container": "b2b",
            "key": "Photon773Mohan",
            "value": {
                "parcelFlag": false,
                "freightFlag": false,
                "defaultBillingAddress": 0,
                "defaultShippingAddress": 0,
                "noOfEmployees": "12",
                "noOfOfficeSpaces": "12",
                "id": "84cc1f1a-cb3b-4510-9013-c8c190187599",
                "addresses": [
                    {
                        "firstName": "Mohan",
                        "lastName": "Kumar",
                        "streetAddress1": {
                            "street": "colony",
                            "landMark": "Palasa"
                        },
                        "city": "Pollada",
                        "state": "AP",
                        "postalCode": "536383"
                    }
                ],
                "shippingAddresses": [
                    0
                ]
            }
        }
    ]
}